…
There are two datasets: L1 French speakers and L1 English speakers.
These were chosen in order to analyze whether having a language with the
same periphrastic future construction does actually affect language
transfer.

The individual Excel files will be read in and then combined into one
dataset (per language) for analysis.

``` r
read_excel("A1IR.xlsx")
```

    ## # A tibble: 166 × 19
    ##    Estudiante Tarea `Tipología textual` Tema     Edad Sexo  País  L1    Estudios
    ##    <chr>      <chr> <chr>               <chr>   <dbl> <chr> <chr> <chr> <chr>   
    ##  1 774        2154  Correo electrónico  Cambio…    22 Mujer Fran… Fran… Otros   
    ##  2 1239       3493  Correo electrónico  Cambio…    58 Homb… Fran… Fran… Univers…
    ##  3 1974       5564  Correo electrónico  Familia    45 Homb… Fran… Fran… Secunda…
    ##  4 776        2160  Correo electrónico  Cambio…    65 Mujer Fran… Fran… Otros   
    ##  5 2002       5639  Correo electrónico  Cambio…    64 Homb… Fran… Fran… Otros   
    ##  6 2002       5639  Correo electrónico  Cambio…    64 Homb… Fran… Fran… Otros   
    ##  7 380        1053  Nota/aviso          Nota l…    37 Mujer Fran… Fran… Univers…
    ##  8 779        2169  Correo electrónico  Cambio…    52 Mujer Fran… Fran… Otros   
    ##  9 775        2158  Nota/aviso          Nota l…    27 Mujer Fran… Fran… Otros   
    ## 10 781        2177  Correo electrónico  Familia    36 Mujer Fran… Fran… Otros   
    ## # ℹ 156 more rows
    ## # ℹ 10 more variables: `Edad de inicio en el estudio del español` <dbl>,
    ## #   `Número de meses estudiando español` <dbl>,
    ## #   `Contactos personales en países de habla española` <chr>,
    ## #   `Contexto a la izquierda` <chr>, `Elemento gramatical 1` <chr>,
    ## #   `Etiqueta 1` <chr>, `Lema 1` <chr>, `Palabra ortográfica 1` <lgl>,
    ## #   `Información adicional 1` <lgl>, `Contexto a la derecha` <chr>

``` r
read_excel("A1VOY.xlsx")
```

    ## # A tibble: 50 × 19
    ##    Estudiante Tarea `Tipología textual` Tema     Edad Sexo  País  L1    Estudios
    ##    <chr>      <chr> <chr>               <chr>   <dbl> <chr> <chr> <chr> <chr>   
    ##  1 840        2342  Correo electrónico  Cambio…    61 Mujer Fran… Fran… Univers…
    ##  2 840        2343  Nota/aviso          Nota l…    61 Mujer Fran… Fran… Univers…
    ##  3 831        2318  Correo electrónico  Cambio…    68 Mujer Fran… Fran… Univers…
    ##  4 791        2207  Correo electrónico  Familia    57 Homb… Fran… Fran… Secunda…
    ##  5 840        2342  Correo electrónico  Cambio…    61 Mujer Fran… Fran… Univers…
    ##  6 1463       4138  Correo electrónico  Cambio…    37 Mujer Guin… Fran… Primaria
    ##  7 1463       4139  Nota/aviso          Nota l…    37 Mujer Guin… Fran… Primaria
    ##  8 840        2342  Correo electrónico  Cambio…    61 Mujer Fran… Fran… Univers…
    ##  9 2129       5993  Nota/aviso          Nota l…    23 Mujer Cost… Fran… Secunda…
    ## 10 2042       5751  Correo electrónico  Cambio…    71 Homb… Fran… Fran… Otros   
    ## # ℹ 40 more rows
    ## # ℹ 10 more variables: `Edad de inicio en el estudio del español` <dbl>,
    ## #   `Número de meses estudiando español` <dbl>,
    ## #   `Contactos personales en países de habla española` <chr>,
    ## #   `Contexto a la izquierda` <chr>, `Elemento gramatical 1` <chr>,
    ## #   `Etiqueta 1` <chr>, `Lema 1` <chr>, `Palabra ortográfica 1` <lgl>,
    ## #   `Información adicional 1` <lgl>, `Contexto a la derecha` <chr>
…
``` r
read_excel("A1VA.xlsx")
```

    ## # A tibble: 50 × 19
    ##    Estudiante Tarea `Tipología textual` Tema     Edad Sexo  País  L1    Estudios
    ##    <chr>      <chr> <chr>               <chr>   <dbl> <chr> <chr> <chr> <chr>   
    ##  1 2096       5907  Correo electrónico  Familia    52 Mujer Fran… Fran… Univers…
    ##  2 480        1334  Nota/aviso          Nota l…    43 Mujer Bélg… Fran… Univers…
    ##  3 390        1083  Correo electrónico  Familia    42 Mujer Fran… Fran… Secunda…
    ##  4 829        2314  Correo electrónico  Familia    45 Mujer Líba… Fran… Univers…
    ##  5 1406       3982  Correo electrónico  Cambio…    37 Mujer Guin… Fran… Univers…
    ##  6 831        2320  Correo electrónico  Familia    68 Mujer Fran… Fran… Univers…
    ##  7 257        711   Correo electrónico  Cambio…    18 Mujer Fran… Fran… Secunda…
    ##  8 2096       5907  Correo electrónico  Familia    52 Mujer Fran… Fran… Univers…
    ##  9 827        2308  Correo electrónico  Familia    64 Mujer Fran… Fran… Univers…
    ## 10 827        2308  Correo electrónico  Familia    64 Mujer Fran… Fran… Univers…
    ## # ℹ 40 more rows
    ## # ℹ 10 more variables: `Edad de inicio en el estudio del español` <dbl>,
    ## #   `Número de meses estudiando español` <dbl>,
    ## #   `Contactos personales en países de habla española` <chr>,
    ## #   `Contexto a la izquierda` <chr>, `Elemento gramatical 1` <chr>,
    ## #   `Etiqueta 1` <chr>, `Lema 1` <chr>, `Palabra ortográfica 1` <lgl>,
    ## #   `Información adicional 1` <lgl>, `Contexto a la derecha` <chr>
…
``` r
read_excel("IRENG.xlsx")
```

    ## # A tibble: 47 × 19
    ##    Estudiante Tarea `Tipología textual` Tema     Edad Sexo  País  L1    Estudios
    ##    <chr>      <chr> <chr>               <chr>   <dbl> <chr> <chr> <chr> <chr>   
    ##  1 1681       4772  Nota/aviso          Nota l…    63 Homb… Esta… Ingl… Univers…
    ##  2 201        552   Correo electrónico  Cambio…    32 Mujer Fran… Ingl… Primaria
    ##  3 55         148   Correo electrónico  Cambio…    52 Mujer Irla… Ingl… Otros   
    ##  4 1622       4601  Nota/aviso          Nota l…    15 Homb… Esta… Ingl… Primaria
    ##  5 101        275   Nota/aviso          Nota l…    49 Homb… Irla… Ingl… Primaria
    ##  6 1630       4619  Correo electrónico  Cambio…    23 Homb… Aust… Ingl… Univers…
    ##  7 53         142   Correo electrónico  Cambio…    57 Homb… Irla… Ingl… Otros   
    ##  8 1333       3775  Nota/aviso          Nota l…    25 Mujer China Ingl… Univers…
    ##  9 59         161   Nota/aviso          Nota l…    50 Homb… Irla… Ingl… Otros   
    ## 10 101        275   Nota/aviso          Nota l…    49 Homb… Irla… Ingl… Primaria
    ## # ℹ 37 more rows
    ## # ℹ 10 more variables: `Edad de inicio en el estudio del español` <dbl>,
    ## #   `Número de meses estudiando español` <dbl>,
    ## #   `Contactos personales en países de habla española` <chr>,
    ## #   `Contexto a la izquierda` <chr>, `Elemento gramatical 1` <chr>,
    ## #   `Etiqueta 1` <chr>, `Lema 1` <chr>, `Palabra ortográfica 1` <lgl>,
    ## #   `Información adicional 1` <lgl>, `Contexto a la derecha` <chr>

``` r
read_excel("VOYENG.xlsx")
```

    ## # A tibble: 47 × 19
    ##    Estudiante Tarea `Tipología textual` Tema     Edad Sexo  País  L1    Estudios
    ##    <chr>      <chr> <chr>               <chr>   <dbl> <chr> <chr> <chr> <chr>   
    ##  1 57         154   Correo electrónico  Cambio…    49 Mujer Irla… Ingl… Otros   
    ##  2 98         266   Nota/aviso          Nota l…    60 Homb… Irla… Ingl… Primaria
    ##  3 59         161   Nota/aviso          Nota l…    50 Homb… Irla… Ingl… Otros   
    ##  4 2278       6385  Correo electrónico  Cambio…    22 Mujer Core… Ingl… Univers…
    ##  5 1333       3774  Correo electrónico  Cambio…    25 Mujer China Ingl… Univers…
    ##  6 356        983   Correo electrónico  Cambio…    63 Mujer Rein… Ingl… Univers…
    ##  7 59         161   Nota/aviso          Nota l…    50 Homb… Irla… Ingl… Otros   
    ##  8 98         265   Correo electrónico  Cambio…    60 Homb… Irla… Ingl… Primaria
    ##  9 138        371   Nota/aviso          Nota l…    43 Homb… Core… Ingl… Otros   
    ## 10 58         157   Correo electrónico  Cambio…    61 Homb… Irla… Ingl… Otros   
    ## # ℹ 37 more rows
    ## # ℹ 10 more variables: `Edad de inicio en el estudio del español` <dbl>,
    ## #   `Número de meses estudiando español` <dbl>,
    ## #   `Contactos personales en países de habla española` <chr>,
    ## #   `Contexto a la izquierda` <chr>, `Elemento gramatical 1` <chr>,
    ## #   `Etiqueta 1` <chr>, `Lema 1` <chr>, `Palabra ortográfica 1` <lgl>,
    ## #   `Información adicional 1` <lgl>, `Contexto a la derecha` <chr>
…
``` r
read_excel("VAENG.xlsx")
```

    ## # A tibble: 30 × 19
    ##    Estudiante Tarea `Tipología textual` Tema     Edad Sexo  País  L1    Estudios
    ##    <chr>      <chr> <chr>               <chr>   <dbl> <chr> <chr> <chr> <chr>   
    ##  1 56         153   Correo electrónico  Familia    23 Homb… Irla… Ingl… Univers…
    ##  2 1630       4619  Correo electrónico  Cambio…    23 Homb… Aust… Ingl… Univers…
    ##  3 356        985   Correo electrónico  Familia    63 Mujer Rein… Ingl… Univers…
    ##  4 231        639   Correo electrónico  Familia    28 Homb… Rein… Ingl… Univers…
    ##  5 53         142   Correo electrónico  Cambio…    57 Homb… Irla… Ingl… Otros   
    ##  6 201        554   Correo electrónico  Familia    32 Mujer Fran… Ingl… Primaria
    ##  7 55         150   Correo electrónico  Familia    52 Mujer Irla… Ingl… Otros   
    ##  8 140        377   Correo electrónico  Familia    52 Mujer Esta… Ingl… Univers…
    ##  9 201        554   Correo electrónico  Familia    32 Mujer Fran… Ingl… Primaria
    ## 10 53         142   Correo electrónico  Cambio…    57 Homb… Irla… Ingl… Otros   
    ## # ℹ 20 more rows
    ## # ℹ 10 more variables: `Edad de inicio en el estudio del español` <dbl>,
    ## #   `Número de meses estudiando español` <dbl>,
    ## #   `Contactos personales en países de habla española` <chr>,
    ## #   `Contexto a la izquierda` <chr>, `Elemento gramatical 1` <chr>,
    ## #   `Etiqueta 1` <chr>, `Lema 1` <chr>, `Palabra ortográfica 1` <lgl>,
    ## #   `Información adicional 1` <lgl>, `Contexto a la derecha` <chr>
…
``` r
FRENG <- list.files(path = ".", pattern = "*.xlsx*", all.files = FALSE, full.names = FALSE, recursive = FALSE)
A1 <- FRENG %>%
    set_names() %>%
    map_dfr(read_excel, .id = "Source")
A1
```

    ## # A tibble: 418 × 20
    ##    Source    Estudiante Tarea `Tipología textual` Tema    Edad Sexo  País  L1   
    ##    <chr>     <chr>      <chr> <chr>               <chr>  <dbl> <chr> <chr> <chr>
    ##  1 A1IR.xlsx 774        2154  Correo electrónico  Cambi…    22 Mujer Fran… Fran…
    ##  2 A1IR.xlsx 1239       3493  Correo electrónico  Cambi…    58 Homb… Fran… Fran…
    ##  3 A1IR.xlsx 1974       5564  Correo electrónico  Famil…    45 Homb… Fran… Fran…
    ##  4 A1IR.xlsx 776        2160  Correo electrónico  Cambi…    65 Mujer Fran… Fran…
    ##  5 A1IR.xlsx 2002       5639  Correo electrónico  Cambi…    64 Homb… Fran… Fran…
    ##  6 A1IR.xlsx 2002       5639  Correo electrónico  Cambi…    64 Homb… Fran… Fran…
    ##  7 A1IR.xlsx 380        1053  Nota/aviso          Nota …    37 Mujer Fran… Fran…
    ##  8 A1IR.xlsx 779        2169  Correo electrónico  Cambi…    52 Mujer Fran… Fran…
    ##  9 A1IR.xlsx 775        2158  Nota/aviso          Nota …    27 Mujer Fran… Fran…
    ## 10 A1IR.xlsx 781        2177  Correo electrónico  Famil…    36 Mujer Fran… Fran…
    ## # ℹ 408 more rows
    ## # ℹ 11 more variables: Estudios <chr>,
    ## #   `Edad de inicio en el estudio del español` <dbl>,
    ## #   `Número de meses estudiando español` <dbl>,
    ## #   `Contactos personales en países de habla española` <chr>,
    ## #   `Contexto a la izquierda` <chr>, `Elemento gramatical 1` <chr>,
    ## #   `Etiqueta 1` <chr>, `Lema 1` <chr>, `Palabra ortográfica 1` <lgl>, …
…
# Tidying

The first thing I want to do with my datasets is see if there are any
duplicate productions from the same participant within the different
conjugations of “voy”.

``` r
A1IR
```

    ## # A tibble: 418 × 20
    ##    Source    Student Task  TypeText     Theme   Age Gender Country L1    Studies
    ##    <chr>     <chr>   <chr> <chr>        <chr> <dbl> <chr>  <chr>   <chr> <chr>  
    ##  1 A1IR.xlsx 774     2154  Correo elec… Camb…    22 Mujer  Francia Fran… Otros  
    ##  2 A1IR.xlsx 1239    3493  Correo elec… Camb…    58 Hombre Francia Fran… Univer…
    ##  3 A1IR.xlsx 1974    5564  Correo elec… Fami…    45 Hombre Francia Fran… Secund…
    ##  4 A1IR.xlsx 776     2160  Correo elec… Camb…    65 Mujer  Francia Fran… Otros  
    ##  5 A1IR.xlsx 2002    5639  Correo elec… Camb…    64 Hombre Francia Fran… Otros  
    ##  6 A1IR.xlsx 2002    5639  Correo elec… Camb…    64 Hombre Francia Fran… Otros  
    ##  7 A1IR.xlsx 380     1053  Nota/aviso   Nota…    37 Mujer  Francia Fran… Univer…
    ##  8 A1IR.xlsx 779     2169  Correo elec… Camb…    52 Mujer  Francia Fran… Otros  
    ##  9 A1IR.xlsx 775     2158  Nota/aviso   Nota…    27 Mujer  Francia Fran… Otros  
    ## 10 A1IR.xlsx 781     2177  Correo elec… Fami…    36 Mujer  Francia Fran… Otros  
    ## # ℹ 408 more rows
    ## # ℹ 10 more variables: AgeStart <dbl>, Months <dbl>, Contacts <chr>,
    ## #   ContextL <chr>, GramElem1 <chr>, Tag1 <chr>, Lemma1 <chr>,
    ## #   OrthoWord1 <lgl>, ExInfo1 <lgl>, ContextR <chr>
…
    ##  [1] "774"  "1239" "1974" "776"  "2002" "380"  "779"  "775"  "781"  "840" 
    ## [11] "2042" "480"  "838"  "1972" "390"  "777"  "232"  "1075" "1975" "636" 
    ## [21] "371"  "794"  "1270" "483"  "778"  "722"  "796"  "372"  "2096" "793" 
    ## [31] "791"  "1406" "831"  "1463" "2129" "638"  "797"  "1988" "326"  "841" 
    ## [41] "836"  "829"  "257"  "827"  "792"  "2039" "1986" "1973" "1681" "201" 
    ## [51] "55"   "1622" "101"  "1630" "53"   "1333" "59"   "2740" "1728" "140" 
    ## [61] "54"   "138"  "98"   "96"   "61"   "57"   "60"   "210"  "58"   "1682"
    ## [71] "1680" "56"   "356"  "231"  "95"   "1629" "2278" "614"  "1631" "2741"
    ## [81] "1616" "1632" "770"

``` r
count(A1IR,Student)
```

    ## # A tibble: 83 × 2
    ##    Student     n
    ##    <chr>   <int>
    ##  1 101        10
    ##  2 1075        1
    ##  3 1239        7
    ##  4 1270        9
    ##  5 1333        4
    ##  6 138         4
    ##  7 140         3
    ##  8 1406        3
    ##  9 1463        6
    ## 10 1616        4
    ## # ℹ 73 more rows

``` r
A1IRNEW <- A1IR %>%
  group_by(Student)
A1IRNEW
```

    ## # A tibble: 418 × 20
    ## # Groups:   Student [83]
    ##    Source    Student Task  TypeText     Theme   Age Gender Country L1    Studies
    ##    <chr>     <chr>   <chr> <chr>        <chr> <dbl> <chr>  <chr>   <chr> <chr>  
    ##  1 A1IR.xlsx 774     2154  Correo elec… Camb…    22 Mujer  Francia Fran… Otros  
    ##  2 A1IR.xlsx 1239    3493  Correo elec… Camb…    58 Hombre Francia Fran… Univer…
    ##  3 A1IR.xlsx 1974    5564  Correo elec… Fami…    45 Hombre Francia Fran… Secund…
    ##  4 A1IR.xlsx 776     2160  Correo elec… Camb…    65 Mujer  Francia Fran… Otros  
    ##  5 A1IR.xlsx 2002    5639  Correo elec… Camb…    64 Hombre Francia Fran… Otros  
    ##  6 A1IR.xlsx 2002    5639  Correo elec… Camb…    64 Hombre Francia Fran… Otros  
    ##  7 A1IR.xlsx 380     1053  Nota/aviso   Nota…    37 Mujer  Francia Fran… Univer…
    ##  8 A1IR.xlsx 779     2169  Correo elec… Camb…    52 Mujer  Francia Fran… Otros  
    ##  9 A1IR.xlsx 775     2158  Nota/aviso   Nota…    27 Mujer  Francia Fran… Otros  
    ## 10 A1IR.xlsx 781     2177  Correo elec… Fami…    36 Mujer  Francia Fran… Otros  
    ## # ℹ 408 more rows
    ## # ℹ 10 more variables: AgeStart <dbl>, Months <dbl>, Contacts <chr>,
    ## #   ContextL <chr>, GramElem1 <chr>, Tag1 <chr>, Lemma1 <chr>,
    ## #   OrthoWord1 <lgl>, ExInfo1 <lgl>, ContextR <chr>

``` r
A1IRNEW %>% 
  filter(L1 == "Francés")
```

    ## # A tibble: 282 × 20
    ## # Groups:   Student [48]
    ##    Source    Student Task  TypeText     Theme   Age Gender Country L1    Studies
    ##    <chr>     <chr>   <chr> <chr>        <chr> <dbl> <chr>  <chr>   <chr> <chr>  
    ##  1 A1IR.xlsx 774     2154  Correo elec… Camb…    22 Mujer  Francia Fran… Otros  
    ##  2 A1IR.xlsx 1239    3493  Correo elec… Camb…    58 Hombre Francia Fran… Univer…
    ##  3 A1IR.xlsx 1974    5564  Correo elec… Fami…    45 Hombre Francia Fran… Secund…
    ##  4 A1IR.xlsx 776     2160  Correo elec… Camb…    65 Mujer  Francia Fran… Otros  
    ##  5 A1IR.xlsx 2002    5639  Correo elec… Camb…    64 Hombre Francia Fran… Otros  
    ##  6 A1IR.xlsx 2002    5639  Correo elec… Camb…    64 Hombre Francia Fran… Otros  
    ##  7 A1IR.xlsx 380     1053  Nota/aviso   Nota…    37 Mujer  Francia Fran… Univer…
    ##  8 A1IR.xlsx 779     2169  Correo elec… Camb…    52 Mujer  Francia Fran… Otros  
    ##  9 A1IR.xlsx 775     2158  Nota/aviso   Nota…    27 Mujer  Francia Fran… Otros  
    ## 10 A1IR.xlsx 781     2177  Correo elec… Fami…    36 Mujer  Francia Fran… Otros  
    ## # ℹ 272 more rows
    ## # ℹ 10 more variables: AgeStart <dbl>, Months <dbl>, Contacts <chr>,
    ## #   ContextL <chr>, GramElem1 <chr>, Tag1 <chr>, Lemma1 <chr>,
    ## #   OrthoWord1 <lgl>, ExInfo1 <lgl>, ContextR <chr>

``` r
A1IRNEW %>% 
  filter(L1 == "Inglés")
```

    ## # A tibble: 136 × 20
    ## # Groups:   Student [35]
    ##    Source     Student Task  TypeText    Theme   Age Gender Country L1    Studies
    ##    <chr>      <chr>   <chr> <chr>       <chr> <dbl> <chr>  <chr>   <chr> <chr>  
    ##  1 IRENG.xlsx 1681    4772  Nota/aviso  Nota…    63 Hombre Estado… Ingl… Univer…
    ##  2 IRENG.xlsx 201     552   Correo ele… Camb…    32 Mujer  Francia Ingl… Primar…
    ##  3 IRENG.xlsx 55      148   Correo ele… Camb…    52 Mujer  Irlanda Ingl… Otros  
    ##  4 IRENG.xlsx 1622    4601  Nota/aviso  Nota…    15 Hombre Estado… Ingl… Primar…
    ##  5 IRENG.xlsx 101     275   Nota/aviso  Nota…    49 Hombre Irlanda Ingl… Primar…
    ##  6 IRENG.xlsx 1630    4619  Correo ele… Camb…    23 Hombre Austra… Ingl… Univer…
    ##  7 IRENG.xlsx 53      142   Correo ele… Camb…    57 Hombre Irlanda Ingl… Otros  
    ##  8 IRENG.xlsx 1333    3775  Nota/aviso  Nota…    25 Mujer  China   Ingl… Univer…
    ##  9 IRENG.xlsx 59      161   Nota/aviso  Nota…    50 Hombre Irlanda Ingl… Otros  
    ## 10 IRENG.xlsx 101     275   Nota/aviso  Nota…    49 Hombre Irlanda Ingl… Primar…
    ## # ℹ 126 more rows
    ## # ℹ 10 more variables: AgeStart <dbl>, Months <dbl>, Contacts <chr>,
    ## #   ContextL <chr>, GramElem1 <chr>, Tag1 <chr>, Lemma1 <chr>,
    ## #   OrthoWord1 <lgl>, ExInfo1 <lgl>, ContextR <chr>
…
The second thing I am going to do is remove any columns I deem
unnecessary for my analyses. These include the L1 column because they
are all French anyway, as well as the 17th and 18th columns, as they
have no data.

``` r
A1 <- subset(A1IRNEW, select = -c(L1, OrthoWord1, ExInfo1))
A1
```

    ## # A tibble: 418 × 17
    ## # Groups:   Student [83]
    ##    Source    Student Task  TypeText  Theme   Age Gender Country Studies AgeStart
    ##    <chr>     <chr>   <chr> <chr>     <chr> <dbl> <chr>  <chr>   <chr>      <dbl>
    ##  1 A1IR.xlsx 774     2154  Correo e… Camb…    22 Mujer  Francia Otros         22
    ##  2 A1IR.xlsx 1239    3493  Correo e… Camb…    58 Hombre Francia Univer…       58
    ##  3 A1IR.xlsx 1974    5564  Correo e… Fami…    45 Hombre Francia Secund…       45
    ##  4 A1IR.xlsx 776     2160  Correo e… Camb…    65 Mujer  Francia Otros         64
    ##  5 A1IR.xlsx 2002    5639  Correo e… Camb…    64 Hombre Francia Otros         63
    ##  6 A1IR.xlsx 2002    5639  Correo e… Camb…    64 Hombre Francia Otros         63
    ##  7 A1IR.xlsx 380     1053  Nota/avi… Nota…    37 Mujer  Francia Univer…        5
    ##  8 A1IR.xlsx 779     2169  Correo e… Camb…    52 Mujer  Francia Otros          1
    ##  9 A1IR.xlsx 775     2158  Nota/avi… Nota…    27 Mujer  Francia Otros         20
    ## 10 A1IR.xlsx 781     2177  Correo e… Fami…    36 Mujer  Francia Otros         14
    ## # ℹ 408 more rows
    ## # ℹ 7 more variables: Months <dbl>, Contacts <chr>, ContextL <chr>,
    ## #   GramElem1 <chr>, Tag1 <chr>, Lemma1 <chr>, ContextR <chr>
…
